%YAML 1.1
%TAG !u! tag:unity3d.com,2011:
--- !u!114 &11400000
MonoBehaviour:
  m_ObjectHideFlags: 0
  m_CorrespondingSourceObject: {fileID: 0}
  m_PrefabInstance: {fileID: 0}
  m_PrefabAsset: {fileID: 0}
  m_GameObject: {fileID: 0}
  m_Enabled: 1
  m_EditorHideFlags: 0
  m_Script: {fileID: 11500000, guid: 5aab6d3efaefc9647957cd096b35696b, type: 3}
  m_Name: Bandit
  m_EditorClassIdentifier: 
  ID: 1
  NameKey: EN1_NAME
  Stats:
    Health: 150
    Stamina: 0
    Attack: 30
    Defense: 25
    WalkingSpeed: 4
    RunningSpeed: 10
    CriticalChance: 0.308
    CriticalDamage: 35
  XPOnDeath: 150
  MoneyAmount: 100
