%YAML 1.1
%TAG !u! tag:unity3d.com,2011:
--- !u!114 &11400000
MonoBehaviour:
  m_ObjectHideFlags: 0
  m_CorrespondingSourceObject: {fileID: 0}
  m_PrefabInstance: {fileID: 0}
  m_PrefabAsset: {fileID: 0}
  m_GameObject: {fileID: 0}
  m_Enabled: 1
  m_EditorHideFlags: 0
  m_Script: {fileID: 11500000, guid: 92dc9288aa8129644b29990053aa232c, type: 3}
  m_Name: Shop
  m_EditorClassIdentifier: 
  ID: 14
  NameKey: 
  DialoguePortrait: {fileID: 21300000, guid: 8e96e35b5a7e3e44aa879f8cbb51873d, type: 3}
