%YAML 1.1
%TAG !u! tag:unity3d.com,2011:
--- !u!114 &11400000
MonoBehaviour:
  m_ObjectHideFlags: 0
  m_CorrespondingSourceObject: {fileID: 0}
  m_PrefabInstance: {fileID: 0}
  m_PrefabAsset: {fileID: 0}
  m_GameObject: {fileID: 0}
  m_Enabled: 1
  m_EditorHideFlags: 0
  m_Script: {fileID: 11500000, guid: 8c6af3c81ecd4024fa73b807ac49cf61, type: 3}
  m_Name: Quest17
  m_EditorClassIdentifier: 
  QuestID: 17
  QuestNameTextKey: QUEST17_NAME
  QuestDescriptionTextKey: QUEST17_DESCRIPTION
  QuestShortDescriptionTextKey: QUEST17_SHORT
  QuestType: 0
  QuestConditions:
    previousQuest: 
    RequiredLevel: 1
  QuestReward:
    MoneyReward: 75
    ExperienceReward: 110
    ItemRewards: []
  EnemyAmount: []
  ActivateNpcID: []
  ActivateZoneID:
  - ID: 4
    Name: City
  Actions: []
