%YAML 1.1
%TAG !u! tag:unity3d.com,2011:
--- !u!114 &11400000
MonoBehaviour:
  m_ObjectHideFlags: 0
  m_CorrespondingSourceObject: {fileID: 0}
  m_PrefabInstance: {fileID: 0}
  m_PrefabAsset: {fileID: 0}
  m_GameObject: {fileID: 0}
  m_Enabled: 1
  m_EditorHideFlags: 0
  m_Script: {fileID: 11500000, guid: 807594905a489a6459c38f2daf885d6b, type: 3}
  m_Name: AC6
  m_EditorClassIdentifier: 
  AchievementID: 6
  AchievementNameTextKey: AC6_NAME
  AchievementDescriptionTextKey: AC6_DESCRIPTION
  AchievementImage: {fileID: 21300000, guid: 7966205290fb17a40bfe45278f598089, type: 3}
  EnemyAmount: []
  DeathAmount: []
  ObjectAmount: []
  ItemAmount: []
  ActivateNpcID:
  - ID: 2
    Name: Seller
  - ID: 2
    Name: Seller
  ActivateZoneID: []
