{
  "Items":
  [
    {
      "Type": "ENEMY",
      "Translations":
      [
        {
          "Key": "EN1_NAME",
          "Value": "Bandit"
        },
        {
          "Key": "EN2_NAME",
          "Value": "Cavaller"
        },
        {
          "Key": "EN3_NAME",
          "Value": "Sub Lider Bandida"
        },
        {
          "Key": "EN4_NAME",
          "Value": "Lider Bandida"
        },
        {
          "Key": "EN5_NAME",
          "Value": "Rei Abaddon"
        }
      ]
    },
    {
      "Type" : "STAT",
      "Translations" :
      [
        {
          "Key": "ATTACK",
          "Value": "Atac"
        },
        {
          "Key": "DEFENSE",
          "Value": "Defensa"
        },
        {
          "Key": "CRITICAL_CHANCE",
          "Value": "Prob. Impacte Crític"
        },
        {
          "Key": "CRITICAL_DAMAGE",
          "Value": "Atac Crític"
        },
        {
          "Key": "HEALTH",
          "Value": "Vida"
        },
        {
          "Key": "STAMINA",
          "Value": "Resistència"
        },
        {
          "Key": "LEVEL",
          "Value": "Nivell"
        }
      ]
    },
    {
      "Type" : "ITEM",
      "Translations" :
      [
        {
        "Key": "CATEGORY_ALL",
        "Value": "Tots els items"
        },
        {
          "Key": "CATEGORY_CONSUMABLE",
          "Value" : "Consumibles"
        },
        {
          "Key": "CATEGORY_USABLE",
          "Value" : "Eines"
        },
        {
          "Key": "NOT_USABLE",
          "Value" : "No ho puc fer servir"
        },
        {
          "Key": "HEAL_SMALL_POTION_NAME",
          "Value" : "Poció de vida menor"
        },
        {
          "Key": "HEAL_SMALL_POTION_DESC",
          "Value" : "Restaura <color=\"yellow\">%replace% punts de vida</color>."
        },
        {
          "Key": "HEAL_BIG_POTION_NAME",
          "Value" : "Poció de salut major"
        },
        {
          "Key": "HEAL_BIG_POTION_DESC",
          "Value" : "Restaura <color=\"yellow\">%replace% punts de vida</color>."
        },
        {
          "Key": "CRITICAL_CHANCE_POTION_NAME",
          "Value" : "Poció Crítica"
        },
        {
          "Key": "CRITICAL_CHANCE_POTION_DESC",
          "Value" : "Incrementa <color=\"yellow\">la probabilitat d'impacte crític</color> en <color=\"yellow\">%replace%</color>% durant <color=\"yellow\">%duration%</color> segons."
        },
        {
          "Key": "ATTACK_POTION_NAME",
          "Value" : "Poció d'Atac"
        },
        {
          "Key": "ATTACK_POTION_DESC",
          "Value" : "Incrementa <color=\"yellow\">l'atac</color> en <color=\"yellow\">%replace%</color>% durant <color=\"yellow\">%duration%</color> segons."
        },
        {
          "Key": "DEFENSE_POTION_NAME",
          "Value" : "Poció de Defensa"
        },
        {
          "Key": "DEFENSE_POTION_DESC",
          "Value" : "Incrementa <color=\"yellow\">la defensa</color> en <color=\"yellow\">%replace%</color>% durant <color=\"yellow\">%duration%</color> segons."
        },
        {
          "Key": "SPEED_POTION_NAME",
          "Value" : "Poció de Velocitat"
        },
        {
          "Key": "SPEED_POTION_DESC",
          "Value" : "Incrementa <color=\"yellow\">la velocitat</color> en <color=\"yellow\">%replace%</color>% durant <color=\"yellow\">%duration%</color> segons."
        }]
    },
    {
      "Type" : "SHOP",
      "Translations" :
      [
        {
          "Key" : "SHOP_NAME",
          "Value" : "TENDA"
        },
        {
          "Key" : "PRICE",
          "Value" : "Preu"
        },
        {
          "Key" : "ITEMS",
          "Value" : "Items"
        },
        {
          "Key" : "BUY_CONFIRMATION",
          "Value" : "Vols comprar %quantity% <color=\"yellow\">%replace%</color> per %price% monedes?"
        },
        {
          "Key" : "NO_COINS",
          "Value" : "No tens suficients diners!"
        },
        {
          "Key" : "NO_MORE_SPACE",
          "Value" : "No pots dur més items a sobre!"
        },
        {
          "Key" : "BUY",
          "Value" : "Hi donaré un cop d'ull."
        },
        {
          "Key" : "EXIT",
          "Value" : "No gràcies. Adéu."
        },
        {
          "Key" : "CATEGORY_ALL",
          "Value" : "Tots els items"
        },
        {
          "Key": "CATEGORY_CONSUMABLE",
          "Value" : "Consumibles"
        },
        {
          "Key": "CATEGORY_USABLE",
          "Value" : "Eines"
        }]
    },
    {
      "Type" : "QUEST",
      "Translations" :
      [
        {
          "Key" : "SHOW",
          "Value" : "Deixa'm veure els detalls de la missió!"
        },
        {
          "Key" : "EXIT",
          "Value" : "Ara no, gràcies!"
        },
        {
          "Key" : "NPC6_OFFER",
          "Value" : "Tinc una missió per a tu, tens un moment?"
        },
        {
          "Key" : "LTB1_NAME",
          "Value" : "<b>Aprendre els fonaments 1</b>"
        },
        {
          "Key" : "LTB1_DESCRIPTION",
          "Value" : "Per tal que comencis la teva aventura, et donaré un diari on podràs escriure totes les missions que rebis, començant per les que et donaré ara mateix ja ja ja. Dóna un cop d'ull al <color=\"blue\">diari</color> i et donaré una recompensa. <color=\"green\">(Prem E)</color>"
        },
        {
          "Key" : "LTB1_SHORT",
          "Value" : "Dóna un cop d'ull al diari (Prem E)"
        },
        {
          "Key" : "LTB2_NAME",
          "Value" : "<b>Aprendre els fonaments 2</b>"
        },
        {
          "Key" : "LTB2_DESCRIPTION",
          "Value" : "Aquí tens un mapa del regne, així no et perdràs i sempre sabràs com tornar a casa. Espero veure't algun que altre cop per aixó... Dóna un cop d'ull al <color=\"blue\">mapa</color>. <color=\"green\">(Prem M)</color>"
        },
        {
          "Key" : "LTB2_SHORT",
          "Value" : "Dóna un cop d'ull al mapa (Prem M)"
        },
        {
          "Key" : "LTB3_NAME",
          "Value" : "<b>Aprendre els fonaments 3</b>"
        },
        {
          "Key" : "LTB3_DESCRIPTION",
          "Value" : "Ara comprobarem el teu <color=\"blue\">inventari</color>, hi podràs veure els objectes que trobis i compris. Si tot està en ordre, et donaré una poció de curació menor per tal que la guardis i la busquis a l'inventari. <color=\"green\">(Prem I)</color>"
        },
        {
          "Key" : "LTB3_SHORT",
          "Value" : "Dóna un cop d'ull a l'inventari (Prem I)"
        },
        {
          "Key" : "LTB4_NAME",
          "Value" : "<b>Aprendre els fonaments 4</b>"
        },
        {
          "Key" : "LTB4_DESCRIPTION",
          "Value" : "Quan no aixecaves un pam de terra t'agradava saltar sobre els mobles i fer-ho malbé tot al teu pas. A veure si recordes com saltar <color=\"blue\">jump</color>, però no trenquis res! <color=\"green\">(Prem Espai)</color>"
        },
        {
          "Key" : "LTB4_SHORT",
          "Value" : "Intenta saltar sense trencar res (Prem Espai)"
        },
        {
          "Key" : "LTB5_NAME",
          "Value" : "<b>Aprendre els fonaments 5</b>"
        },
        {
          "Key" : "LTB5_DESCRIPTION",
          "Value" : "Ara comprovarem si el meu entrenament durant aquests anys ha valgut la pena... Intenta <color=\"blue\">atacar</color> amb la teva espasa, però ben lluny de mi ja ja ja. <color=\"green\">(Clic esquerra)</color>"
        },
        {
          "Key" : "LTB5_SHORT",
          "Value" : "Intenta atacar amb la teva espasa! (Clic esquerra)"
        },
        {
          "Key" : "LTB6_NAME",
          "Value" : "<b>Aprendre els fonaments 6</b>"
        },
        {
          "Key" : "LTB6_DESCRIPTION",
          "Value" : "Què tal si intentem un atac ràpid? Com el seu nom indica, són ràpids, però fan menys mal. Fes un <color=\"blue\">atac ràpid</color> amb l'espasa. <color=\"green\">(Prem X)</color>"
        },
        {
          "Key" : "LTB6_SHORT",
          "Value" : "Fes un atac ràpid (Prem X)"
        },
        {
          "Key" : "LTB7_NAME",
          "Value" : "<b>Aprendre els fonaments 7</b>"
        },
        {
          "Key" : "LTB7_DESCRIPTION",
          "Value" : "Què tal si provem un atac fort? Com el seu nom indica, són més lents però fan més mal. Fes un <color=\"blue\">atac fort</color> amb la teva espasa. <color=\"green\">(Prem Z)</color>"
        },
        {
          "Key" : "LTB7_SHORT",
          "Value" : "Intenta fer un atac fort (Prem Z)"
        },
        {
          "Key" : "LTB8_NAME",
          "Value" : "<b>Aprendre els fonaments 8</b>"
        },
        {
          "Key" : "LTB8_DESCRIPTION",
          "Value" : "Ara provarem el teu mestratge a l'hora de bloquejar atacs. Imagina que t'estan atacant i intenta <color=\"blue\">bloquejar</color> l'atac. <color=\"green\">(Clic dret)</color>"
        },
        {
          "Key" : "LTB8_SHORT",
          "Value" : "Intenta bloquejar un atac (Clic dret)"
        },
        {
          "Key" : "LTB9_NAME",
          "Value" : "<b>Aprendre els fonaments 9</b>"
        },
        {
          "Key" : "LTB9_DESCRIPTION",
          "Value" : "A vegades no podràs bloquejar un atac i seria millor intentar esquivar-lo. Imagina que t'estan atacant i intenta <color=\"blue\">esquivar</color> l'atac. <color=\"green\">(Prem V)</color>"
        },
        {
          "Key" : "LTB9_SHORT",
          "Value" : "Intenta esquivar un atac (Prem V)"
        },
        {
          "Key" : "LTB10_NAME",
          "Value" : "<b>Aprendre els fonaments 10</b>"
        },
        {
          "Key" : "LTB10_DESCRIPTION",
          "Value" : "Finalments hauràs d'intentar caminar sigilosament. A vegades hauràs d'anar en compte per tal que els enemics no et puguin sentir i caminar <color=\"blue\">sigilosament</color> és la millor opció. <color=\"green\">(Prem F mentre camines)</color>"
        },
        {
          "Key" : "LTB10_SHORT",
          "Value" : "Intenta caminar sigilosament (Prem F mentre camines)"
        },
        {
          "Key" : "LTB11_NAME",
          "Value" : "<b>Entrenament Final</b>"
        },
        {
          "Key" : "LTB11_DESCRIPTION",
          "Value" : "Bé, sembla que t'he entrenat bé ja ja ja. La teva aventura pot començar, però primer et donaré una missió inicial. He vist que hi ha un <color=\"blue\">grup de bandits</color> per aquesta zona, encarrega't d'ells."
        },
        {
          "Key" : "LTB11_SHORT",
          "Value" : "Troba els bandits dels voltants i elimina'ls"
        },
        {
          "Key" : "QUEST12_NAME",
          "Value" : "Ecos del passat"
        },
        {
          "Key" : "QUEST12_DESCRIPTION",
          "Value" : "Hi ha unes ruines al nord que els habitants del regne intenten evitar"
        },
        {
          "Key" : "QUEST12_SHORT",
          "Value" : "Explora les ruines"
        },
        {
          "Key" : "QUEST13_NAME",
          "Value" : "La gent pelroja també té ànima, oi?"
        },
        {
          "Key" : "QUEST13_DESCRIPTION",
          "Value" : "Algunes persones estan intentant executar una suposada bruixa"
        },
        {
          "Key" : "QUEST13_SHORT",
          "Value" : "Salva la noia pelroja"
        },
        {
          "Key" : "QUEST14_NAME",
          "Value" : "Els bandits no mereixen compassió"
        },
        {
          "Key" : "QUEST14_DESCRIPTION",
          "Value" : "Uns bandits van atracar el germà d'en Leonard, encarrega't d'ells"
        },
        {
          "Key" : "QUEST14_SHORT",
          "Value" : "Elimina tots els bandits"
        },
        {
          "Key" : "QUEST15_NAME",
          "Value" : "Bandits als camins!"
        },
        {
          "Key" : "QUEST15_DESCRIPTION",
          "Value" : "Elimina els bandits que ronden a prop del camí"
        },
        {
          "Key" : "QUEST15_SHORT",
          "Value" : "Elimina els bandits"
        },
        {
          "Key" : "QUEST16_NAME",
          "Value" : "Un llac agradable"
        },
        {
          "Key" : "QUEST16_DESCRIPTION",
          "Value" : "Visita el llac i gaudeix de les vistes"
        },
        {
          "Key" : "QUEST16_SHORT",
          "Value" : "Ves al llac"
        },
        {
          "Key" : "QUEST17_NAME",
          "Value" : "La gran ciudat!"
        },
        {
          "Key" : "QUEST17_DESCRIPTION",
          "Value" : "Visita la ciutat i torna al poble per explicar què has vist"
        },
        {
          "Key" : "QUEST17_SHORT",
          "Value" : "Ves a la ciutat"
        },
        {
          "Key" : "QUEST18_NAME",
          "Value" : "Les millors pocions del regne"
        },
        {
          "Key" : "QUEST18_DESCRIPTION",
          "Value" : "Visita la tenda de pocions de la mare de l'Elizabeth"
        },
        {
          "Key" : "QUEST18_SHORT",
          "Value" : "Ves a la tenda"
        },
        {
          "Key" : "QUEST19_NAME",
          "Value" : "Ensenya'ls qui mana!"
        },
        {
          "Key" : "QUEST19_DESCRIPTION",
          "Value" : "Ves al castell i derrota un cavaller"
        },
        {
          "Key" : "QUEST19_SHORT",
          "Value" : "Elimina un cavaller"
        },
        {
          "Key" : "QUEST20_NAME",
          "Value" : "Una nova era"
        },
        {
          "Key" : "QUEST20_DESCRIPTION",
          "Value" : "Quan t'hagis preparat bé, derrota l'usurpador i recupera el tron"
        },
        {
          "Key" : "QUEST20_SHORT",
          "Value" : "Elimina el rei"
        }
      ]
    },
    {
      "Type" : "LANGUAGE",
      "Translations" :
      [
        {
        "Key": "NAME_ES_ES",
        "Value": "Spanish"
        },
        {
          "Key": "NAME_EN_EN",
          "Value" : "English"
        },
        {
          "Key": "NAME_CA_ES",
          "Value" : "Catalan"
        }]
    },
    {
      "Type" : "GUI",
      "Translations" :
      [
        {
          "Key": "LANGUAGE",
          "Value": "Idioma"
        },
        {
          "Key": "DEFAULT_SETTINGS",
          "Value": "Configuració Predeterminada"
        },
        {
          "Key": "MUSIC",
          "Value": "Música"
        },
        {
          "Key": "SFX",
          "Value": "SFX"
        },
        {
          "Key": "OPTIONS",
          "Value": "Opcions"
        },
        {
          "Key": "LOAD_GAME",
          "Value": "Carregar partida"
        },
        {
          "Key": "NEW_GAME",
          "Value": "Nova partida"
        },
        {
          "Key": "QUIT",
          "Value": "Sortir"
        },
        {
          "Key": "START_GAME",
          "Value": "Començar partida"
        },
        {
          "Key": "ENTER_NICKNAME",
          "Value": "introdueix el teu nom..."
        },
        {
          "Key": "SAVE",
          "Value": "Guardar"
        },
        {
          "Key": "NEXT",
          "Value": "Següent"
        },
        {
          "Key": "USE",
          "Value": "Utilitzar"
        },
        {
          "Key": "CONFIRM",
          "Value": "Confirmar"
        },
        {
          "Key": "SELECT",
          "Value": "Selecciona"
        },
        {
          "Key": "YES",
          "Value": "Sí"
        },
        {
          "Key": "NO",
          "Value": "No"
        },
        {
          "Key": "NOT_AVAILABLE",
          "Value": "No disponible en aquesta demo"
        },
        {
          "Key": "PROVISIONAL",
          "Value": "Aquest contingut és provisional, podria canviar de cara a la versió final"
        },
        {
          "Key": "BACK",
          "Value": "Enrere"
        },
        {
          "Key": "BUY",
          "Value": "Comprar"
        },
        {
          "Key": "MOVE",
          "Value": "Moure"
        },
        {
          "Key": "SKIP",
          "Value": "Saltar"
        }
      ]
    },
    {
      "Type" : "DIALOGUE",
      "Translations" :
      [
        {
          "Key" : "SHOP_WELCOME",
          "Value" : "Aquesta és la tenda de pocions, què necessites?"
        },
        {
          "Key" : "MASTER_INTRO01",
          "Value" : "Finalment t'has despertat! Serà millor que surtis aviat si no vols que es fagi fosc a mig camí."
        },
        {
          "Key" : "MASTER_INTRO02",
          "Value" : "Perdó. He tornat a tenir el mateix malson de sempre i amb prou feines he pogut dormir."
        },
        {
          "Key" : "MASTER_INTRO03",
          "Value" : "El malson del poble en flames?"
        },
        {
          "Key" : "MASTER_INTRO04",
          "Value" : "És tant real... És com si ho hagués viscut realment."
        },
        {
          "Key" : "MASTER_INTRO05",
          "Value" : "No li donis més voltes, el més important és la realitat. Avui és el dia que has estat esperant tant de temps."
        },
        {
          "Key" : "MASTER_INTRO06",
          "Value" : "És cert, avui comença la meva aventura! Estic impacient per explorar el món."
        },
        {
          "Key" : "MASTER_INTRO07",
          "Value" : "Entenc la teva il·lusió, però calma't una mica. Recorda que si tens massa fatiga és bona idea descansar una mica al costat d'una bona foguera."
        },
        {
          "Key" : "MASTER_INTRO08",
          "Value" : "Entesos, mestre. Crec que duc tot l'equipament a sobre ja. És hora de marxar!"
        },
        {
          "Key" : "MASTER_INTRO09",
          "Value" : "Espera! Tinc una última cosa per entregar-te abans que marxis..."
        },
        {
          "Key" : "MASTER_INTRO10",
          "Value" : "Fins que no completis aquesta missió no podràs marxar encara."
        },
        {
          "Key" : "MASTER_INTRO11",
          "Value" : "Veig que t'he ensenyat bé! Jojojo. Ja pots marxar."
        },
        {
          "Key" : "MASTER_INTRO12",
          "Value" : "Com portes la teva aventura?"
        },
        {
          "Key" : "MASTER_INTRO13",
          "Value" : "Tinc una altre misio per a tu."
        },
        {
          "Key" : "MASTER_INTRO14",
          "Value" : "Aqui esta la teva recompensa."
        },
        {
          "Key" : "TOWN_EUGENE_01",
          "Value" : "Hola! Em dic Eugene. Veig que no ets d'aquí, hauries d'explorar el poble per familiaritzar-te."
        },
        {
        "Key" : "TOWN_EUGENE_02",
        "Value" : "Aquí a prop tenim un llac meravellós que hauries de visitar."
        },
        {
          "Key" : "TOWN_EUGENE_03",
          "Value" : "El problema és que mai he sabut nedar..."
        },
        {
          "Key" : "TOWN_EUGENE_04",
          "Value" : "Només has de tenir una mica de compte per no caure-hi en un descuit."
        },
        {
          "Key" : "TOWN_EUGENE_05",
          "Value" : "És un llac preciós, sobretot quan cau la tarda."
        },
        {
          "Key" : "TOWN_EUGENE_06",
          "Value" : "Hauries d'anar al llac."
        },
        {
          "Key" : "TOWN_DOROTHY_01",
          "Value" : "Hola, em dic Dorothy. M'encanta la vida en aquest poble, tot i que a vegades ens falten provisions."
        },
        {
          "Key" : "TOWN_DOROTHY_02",
          "Value" : "No teniu cap poble als voltants per comerciar?"
        },
        {
          "Key" : "TOWN_DOROTHY_03",
          "Value" : "Fa molts anys solíem comerciar amb un poble dels voltants, però la gent diu que el rei que tenim ara el va arrassar."
        },
        {
          "Key" : "TOWN_DOROTHY_04",
          "Value" : "Se sap per què el va destruir?"
        },
        {
          "Key" : "TOWN_DOROTHY_05",
          "Value" : "Les males veus diuen que va ser una lluita pel dret al tron, però els rumors només són rumors."
        },
        {
          "Key" : "TOWN_DOROTHY_06",
          "Value" : "Però cal que anem en compte. Són molts els que han desaparegut sense deixar rastre després de parlar d'aquest tema."
        },
        {
          "Key" : "TOWN_DOROTHY_07",
          "Value" : "Com portes la teva aventura?"
        },
        {
          "Key" : "TOWN_ALBERT_01",
          "Value" : "Hola, em dic Albert. Em guanyo la vida treballant de sol a sol. Sé que la meva granja no és res de l'altre món, però espero que estiguis còmode. "

        },
        {
          "Key" : "TOWN_ALBERT_02",
          "Value" : "Agraeixo la seva amabilitat, senyor."
        },
        {
          "Key" : "TOWN_ALBERT_03",
          "Value" : "M'alegro de tornar-te a veure, però no tinc temps per parlar amb calma."
        },
        {
          "Key" : "TOWN_ALBERT_04",
          "Value" : "Em sap greu, però he d'anar a regar les plantes, que és tard i vol ploure (rialles)."
        },
        {
          "Key" : "TOWN_JOHN_01",
          "Value" : "Hola, em dic John. Com pots veure aquest poble és molt agradable, tot i que sempre m'hauria agradat viure a la ciutat."
        },
        {
          "Key" : "TOWN_JOHN_02",
          "Value" : "Diuen que és molt gran i que es pot veure el castell des d'allà."
        },
        {
          "Key" : "TOWN_JOHN_03",
          "Value" : "Tinc bastanta feina aquí i no puc descuidar els meus deures. Podries visitar la ciutat i dir-me si tot és cert?"
        },
        {
          "Key" : "TOWN_JOHN_04",
          "Value" : "Cap problema, m'hi havia de dirigir igualment."
        },
        {
          "Key" : "TOWN_JOHN_05",
          "Value" : "Increíble, llavors era cert!."
        },
        {
          "Key" : "TOWN_JOHN_06",
          "Value" : "No t'oblidis d'informar-me si has visitat la ciutat!"
        },
        {
          "Key" : "TOWN_SHOP",
          "Value" : "Benvingut a la meva botiga."
        },
        {
          "Key" : "RUINS_LEONARD_01",
          "Value" : "Hola, em dic Leonard. Veig que has partit en busca d'aventures, és possible que hagis vist el meu germà algun cop, ja que solia ser un venedor ambulant."
        },
        {
          "Key" : "RUINS_LEONARD_02",
          "Value" : "No l'he vist pas. De fet la meva aventura tot just comença ara."
        },
        {
          "Key" : "RUINS_LEONARD_03",
          "Value" : "Llavors és normal. Fa poc uns bandits el van atracar i li van robar tot el que duia a sobre. Des de llavors no ha tornat a sortir de casa."
        },
        {
          "Key" : "RUINS_LEONARD_04",
          "Value" : "La veritat és que la teva presència imposa bastant, potser et podries encarregar dels bandits."
        },
        {
          "Key" : "RUINS_LEONARD_05",
          "Value" : "Porto temps esperant a que aparegui per aquí algú que els pugui derrotar."
        },
        {
          "Key" : "RUINS_LEONARD_06",
          "Value" : "Moltíssimes gràcies! Ara que aquells brètols ja no hi són segur que el meu germà tornarà a ser venedor ambulant."
        },
        {
          "Key" : "CITY_NEMESINA_01",
          "Value" : "Com pot ser que hagis arribat fins aquí sense un cavall?"
        },
        {
          "Key" : "CITY_NEMESINA_02",
          "Value" : "Són un mitjà de transport imprescindible, o és que ets tant pobre que no t'ho pots permetre?"
        },
        {
          "Key" : "CITY_NEMESINA_03",
          "Value" : "Segur que tens els peus plens de durícies... Que desagradable! Suposo que és un dels múltiples inconvenients de ser pobre."
        },
        {
          "Key" : "CITY_ELIZABETH_01",
          "Value" : "Siusplau, perdona la meva amiga. S'ha criat entre nobles i ha agafat alguns dels mals costums que tenen. No li fagis gaire cas."
        },
        {
          "Key" : "CITY_ELIZABETH_02",
          "Value" : "Fa temps, jo i la meva familia viviem en la pobresa. Va ser llavors quan la meva mare va obrir una tenda a la ciutat i des de llavors ven les millors pocions del regne."
        },
        {
          "Key" : "CITY_ELIZABETH_03",
          "Value" : "Hauries de visitar la seva tenda, no te'n penediràs."
        },
        {
          "Key" : "CITY_ELIZABETH_04",
          "Value" : "M'hi passaré una estona més tard, gràcies per la informació!"
        },
        {
          "Key" : "CITY_JOSEPH_01",
          "Value" : "Hola, el meu nom és Joseph. Espero que tinguis una estància agradable a la nostra ciutat. Què opines de la nostra gent?"
        },
        {
          "Key" : "CITY_JOSEPH_02",
          "Value" : "Bé... Diguem que he tingut benvingudes més càlides."
        },
        {
          "Key" : "CITY_JOSEPH_03",
          "Value" : "Ja ho entenc... Els simpatitzants del rei solen ser molt maleducats amb els extrangers. La meva mare solia explicar-me que fa molt de temps tothom era amigable per aquí."
        },
        {
          "Key" : "CITY_JOSEPH_04",
          "Value" : "Hauríem d'aconseguir que tothom fos com abans!"
        },
        {
          "Key" : "CITY_JOSEPH_05",
          "Value" : "El principal impediment és el rei. Tan debó el primogènit del rei emèrit no hagués desaparegut! No li agradaven els luxes i solia escapolir-se del castell per visitar la gent."
        },
        {
          "Key" : "CITY_JOSEPH_06",
          "Value" : "Primogènit? El rei tenia un germà?"
        },
        {
          "Key" : "CITY_JOSEPH_07",
          "Value" : "Sí... El germà gran del rei era l'hereu legítim del tron, però va desaparèixer fa molts anys i ningú n'ha sabut mai més res."
        },
        {
          "Key" : "CITY_JOSEPH_08",
          "Value" : "Ningú l'ha intentat trobar mai? No hi ha hagut mai cap investigació oficial?"
        },
        {
          "Key" : "CITY_JOSEPH_09",
          "Value" : "Bé... les males veus diuen que els dos germans no es portaven gaire bé. Alguns han arribat a insinuar que el germà petit va assassinar el germà gran per prendre-li el tron!"
        },
        {
          "Key" : "CITY_JOSEPH_10",
          "Value" : "Com portes la teva aventura?"
        },
        {
          "Key" : "CITY_HARRY_01",
          "Value" : "Salutacions, noble visitant. Veig que no ets de per aquí, permet-me que et pregunti d'on vens."
        },
        {
          "Key" : "CITY_HARRY_02",
          "Value" : "Bé, doncs... És una mica llarg d'explicar."
        },
        {
          "Key" : "CITY_HARRY_03",
          "Value" : "Oh, jajaja. Perdona que em fiqui on no em demanen. He estat una mica brusc. Ja se sap, la curiositat va matar el gat!"
        },
        {
          "Key" : "CITY_HARRY_04",
          "Value" : "Per cert, has vist les ruines que hi havia de camí cap aquí?"
        },
        {
          "Key" : "CITY_HARRY_05",
          "Value" : "Sí que les he vist, tot i que estaven plagades de bandits."
        },
        {
          "Key" : "CITY_HARRY_06",
          "Value" : "És una autèntica llàstima. Abans que el rei actual arribés al poder, allà solia haver-hi un poble pròsper."
        },
        {
          "Key" : "CITY_HARRY_07",
          "Value" : "Com portes la teva aventura?"
        },
        {
          "Key" : "CITY_LIONEL_01",
          "Value" : "Vés amb molt de compte si et dirigeixes al castell, els guàrdies són guerrers formidables que no deixen que ningú s'hi apropi ni el més mínim."
        },
        {
          "Key" : "CITY_LIONEL_02",
          "Value" : "Tant forts són?"
        },
        {
          "Key" : "CITY_LIONEL_03",
          "Value" : "Els bandits semblen nens al seu costat. O bé escampen la boira o són derrotats sense pietat si s'hi enfronten. El rei està realment protegit."
        },
        {
          "Key" : "CITY_LIONEL_04",
          "Value" : "Déu meu, no m'esperava que les teves habilitats fossin superiors a les d'un cavaller del rei."
        },
        {
          "Key" : "CITY_LIONEL_05",
          "Value" : "Com va la teva aventura? Ja t'has enfrontat a algun cavaller?"
        },
        {
          "Key" : "CASTLE_ABADDON_01",
          "Value" : "Sembla que la meva guàrdia reial no ha estat suficient per aturar-te. Estic envoltat d'incompetents!"
        },
        {
          "Key" : "CASTLE_ABADDON_02",
          "Value" : "Tot i que ara que et veig de ben aprop... Sí... T'assembles molt a algú que solia treure'm de polleguera!"
        },
        {
          "Key" : "CASTLE_ABADDON_03",
          "Value" : "Et refereixes al meu pare oi? He vingut fins aquí per venjar la seva mort i posar punt i final a la teva història. Aparta't del tron, usurpador!"
        },
        {
          "Key" : "CASTLE_ABADDON_04",
          "Value" : "És clar... Al final el meu germà va aconseguir tenir descendència. Hauria d'haver mort aquella donzella tan bon punt us veu començar a encapritxar l'un de l'altre!"
        },
        {
          "Key" : "CASTLE_ABADDON_05",
          "Value" : "Serà com matar la mateixa persona dues vegades, no t'imagines com ho gaudiré!"
        },
        {
          "Key" : "SHOP_TALK_01",
          "Value" : "Benvingut a la meva botiga, aquí pots trobar pocions que poden ser útils per tu. El meu nom es Anne."
        },
        {
          "Key" : "SHOP_TALK_02",
          "Value" : "Un plaer conèixer-te, Anne"
        },
        {
          "Key" : "SHOP_TALK_03",
          "Value" : "Has conegut a la meva filla? El seu nom és Elizabeth, es una bona noia, a vegades m'ajuda amb la tenda."
        },
        {
          "Key" : "SHOP_TALK_04",
          "Value" : "Bé, espero que trobis alguna cosa que et sigui útil a la meva botiga"
        },
        {
          "Key" : "TOWN_ALBERT",
          "Value" : "Albert"
        },
        {
          "Key" : "TOWN_DOROTHY",
          "Value" : "Dorothy"
        },
        {
          "Key" : "TOWN_EUGENE",
          "Value" : "Eugene"
        },
        {
          "Key" : "TOWN_JOHN",
          "Value" : "John"
        },
        {
          "Key" : "SHOP",
          "Value" : "Anne"
        },
        {
          "Key" : "RUINS_TOWN_LEONARD",
          "Value" : "Leonard"
        },
        {
          "Key" : "MASTER",
          "Value" : "Russell"
        },
        {
          "Key" : "CITY_ELIZABETH",
          "Value" : "Elizabeth"
        },
        {
          "Key" : "CITY_JOSEPH",
          "Value" : "Joseph"
        },
        {
          "Key" : "CITY_HARRY",
          "Value" : "Harry"
        },
        {
          "Key" : "CITY_LIONEL",
          "Value" : "Lionel"
        },
        {
          "Key" : "CITY_NEMESINA",
          "Value" : "Nemesina"
        },
        {
          "Key" : "CASTLE_ABADDON",
          "Value" : "Abaddon"
        }
      ]
    },
    {
      "Type" : "MESSAGE",
      "Translations" :
      [
        {
          "Key": "ITEM_OBTAINED",
          "Value": "Has obtingut <color=\"yellow\">%quantity% %replace%</color>"
        },
        {
          "Key": "NO_MONEY",
          "Value": "No tens suficients monedes"
        },
        {
          "Key": "ITEM_BOUGHT",
          "Value": "Item comprat"
        }
      ]
    },
    {
      "Type" : "LOCATION",
      "Translations" :
      [
        {
          "Key": "ZONE_1",
          "Value": "Forbidden Woods"
        },
        {
          "Key": "ZONE_2",
          "Value": "Forgotten Ruins"
        },
        {
          "Key": "ZONE_3",
          "Value": "Oak's Rest"
        },
        {
          "Key": "ZONE_4",
          "Value": "Goldrise"
        },
        {
          "Key": "ZONE_5",
          "Value": "King's Keep"
        },
        {
          "Key": "ZONE_6",
          "Value": "Lingering Whispers"
        },
        {
          "Key": "ZONE_7",
          "Value": "Quiet Roads"
        },
        {
          "Key": "ZONE_8",
          "Value": "Riverside Way"
        },
        {
          "Key": "ZONE_9",
          "Value": "King's Avenue"
        },
        {
          "Key": "ZONE_10",
          "Value": "Honeybee Road"
        }
      ]
    },
    {
    "Type" : "SELECTION",
    "Translations" :
    [
      {
        "Key": "BACK_BUTTON",
        "Value": "Back"
      },
      {
        "Key": "NAME",
        "Value": ", choose your character"
      },
      {
        "Key": "CONFIRMATION_TEXT",
        "Value": "Are you sure?"
      },
      {
        "Key": "CONFIRMATION_YES",
        "Value": "Yes"
      },
      {
        "Key": "CONFIRMATION_NO",
        "Value": "No"
      }
    ]
    },
    {
      "Type" : "ACHIEVEMENT",
      "Translations" :
      [
        {
          "Key": "AC1_NAME",
          "Value": "Història d'una Corona"
        },
        {
          "Key": "AC1_DESCRIPTION",
          "Value": "Has descobert tota la història del regne i desenterrat els secrets del passat de la teva familia"
        },
        {
          "Key": "AC2_NAME",
          "Value": "Primera victòria"
        },
        {
          "Key": "AC2_DESCRIPTION",
          "Value": "Has vençut el teu primer enemic"
        },
        {
          "Key": "AC3_NAME",
          "Value": "No digne"
        },
        {
          "Key": "AC3_DESCRIPTION",
          "Value": "T'ha derrotat un bandit. Els anys d'entrenament no han valgut per res."
        },
        {
          "Key": "AC4_NAME",
          "Value": "No he begut, ho prometo!"
        },
        {
          "Key": "AC4_DESCRIPTION",
          "Value": "T'has pres tots els tipus de pocions"
        },
        {
          "Key": "AC5_NAME",
          "Value": "Em temo que no tinc por!"
        },
        {
          "Key": "AC5_DESCRIPTION",
          "Value": "T'has trobat una rata"
        },
        {
          "Key": "AC6_NAME",
          "Value": "No ens haviem trobat anteriorment?"
        },
        {
          "Key": "AC6_DESCRIPTION",
          "Value": "Has parlat amb la venedora de pocions en totes les ubicacions possibles"
        },
        {
          "Key": "AC7_NAME",
          "Value": "Un savi va dir un dia: sigues com l'aigua"
        },
        {
          "Key": "AC7_DESCRIPTION",
          "Value": "Has caigut a l'aigua i t'has ofegat"
        },
        {
          "Key": "AC8_NAME",
          "Value": "Becari en periodisme"
        },
        {
          "Key": "AC8_DESCRIPTION",
          "Value": "Has trobat una entrada de diari"
        },
        {
          "Key": "AC9_NAME",
          "Value": "No m'agrada dur armadura"
        },
        {
          "Key": "AC9_DESCRIPTION",
          "Value": "Has derrotat un cavaller"
        },
        {
          "Key": "AC10_NAME",
          "Value": "Deixa'm descansar, siusplau!"
        },
        {
          "Key": "AC10_DESCRIPTION",
          "Value": "Has corregut fins que t'has esgotat"
        },
        {
          "Key": "AC11_NAME",
          "Value": "Escalador"
        },
        {
          "Key": "AC11_DESCRIPTION",
          "Value": "Has pujat al punt més alt del regne"
        },
        {
          "Key": "AC12_NAME",
          "Value": "Turista"
        },
        {
          "Key": "AC12_DESCRIPTION",
          "Value": "Has visitat tots els llocs possibles"
        },
        {
          "Key": "AC13_NAME",
          "Value": "Austeritat"
        },
        {
          "Key": "AC13_DESCRIPTION",
          "Value": "T'has gastat més de 2000 monedes"
        },
        {
          "Key": "AC14_NAME",
          "Value": "Campista"
        },
        {
          "Key": "AC14_DESCRIPTION",
          "Value": "Has trobat totes les fogueres"
        },
        {
          "Key": "AC15_NAME",
          "Value": "Uh, oh, no tinc por!"
        },
        {
          "Key": "AC15_DESCRIPTION",
          "Value": "Has creuat el pont penjant"
        },
        {
          "Key": "AC16_NAME",
          "Value": "Entrenat"
        },
        {
          "Key": "AC16_DESCRIPTION",
          "Value": "Has completat amb èxit el teu entrenament"
        }
      ]
    },
    {
      "Type" : "ENTRY",
      "Translations" :
      [
        {
          "Key": "ENTRY1",
          "Value": "Sembla que el rei actual no es molt estimat per els habitants, encara que si el que diuen es cert llavors es normal que no ho sigui. Qui sap els motius que el van portar a arrassar el poble, hi ha alguna cosa que no encaixa."
        },
        {
          "Key": "ENTRY2",
          "Value": "Llavors hi habia un altre princep que era l'hereu legítim del tron pero va desapareixer i ningú el va buscar? Que extrany..."
        },
        {
          "Key": "ENTRY3",
          "Value": "Entrada3"
        },
        {
          "Key": "ENTRY4",
          "Value": "Entrada4"
        },
        {
          "Key": "ENTRY5",
          "Value": "Entrada5"
        },
        {
          "Key": "ENTRY6",
          "Value": "Entrada6"
        },
        {
          "Key": "ENTRY7",
          "Value": "Entrada7"
        },
        {
          "Key": "ENTRY8",
          "Value": "Entrada8"
        },
        {
          "Key": "ENTRY9",
          "Value": "Entrada9"
        },
        {
          "Key": "ENTRY10",
          "Value": "Entrada10"
        }
      ]
    }
  ]
}
