%YAML 1.1
%TAG !u! tag:unity3d.com,2011:
--- !u!1001 &8115805464178904559
PrefabInstance:
  m_ObjectHideFlags: 0
  serializedVersion: 2
  m_Modification:
    m_TransformParent: {fileID: 0}
    m_Modifications:
    - target: {fileID: 4160681035028019020, guid: 9a0d14f51db76254ea10cfc4b84db4eb,
        type: 3}
      propertyPath: m_fontColor32.rgba
      value: 4278190080
      objectReference: {fileID: 0}
    - target: {fileID: 4160681035028019020, guid: 9a0d14f51db76254ea10cfc4b84db4eb,
        type: 3}
      propertyPath: m_fontColor.r
      value: 0
      objectReference: {fileID: 0}
    - target: {fileID: 4160681035028019020, guid: 9a0d14f51db76254ea10cfc4b84db4eb,
        type: 3}
      propertyPath: m_fontColor.g
      value: 0
      objectReference: {fileID: 0}
    - target: {fileID: 4160681035028019020, guid: 9a0d14f51db76254ea10cfc4b84db4eb,
        type: 3}
      propertyPath: m_fontColor.b
      value: 0
      objectReference: {fileID: 0}
    - target: {fileID: 4160681035136674738, guid: 9a0d14f51db76254ea10cfc4b84db4eb,
        type: 3}
      propertyPath: m_Color.r
      value: 1
      objectReference: {fileID: 0}
    - target: {fileID: 4160681035136674738, guid: 9a0d14f51db76254ea10cfc4b84db4eb,
        type: 3}
      propertyPath: m_Color.g
      value: 1
      objectReference: {fileID: 0}
    - target: {fileID: 4160681035136674738, guid: 9a0d14f51db76254ea10cfc4b84db4eb,
        type: 3}
      propertyPath: m_Color.b
      value: 1
      objectReference: {fileID: 0}
    - target: {fileID: 4160681035136674738, guid: 9a0d14f51db76254ea10cfc4b84db4eb,
        type: 3}
      propertyPath: m_Sprite
      value: 
      objectReference: {fileID: 21300000, guid: 80dde5cdb5c00d34a9ace70de386559f,
        type: 3}
    - target: {fileID: 4160681035136674739, guid: 9a0d14f51db76254ea10cfc4b84db4eb,
        type: 3}
      propertyPath: m_LocalPosition.x
      value: 0
      objectReference: {fileID: 0}
    - target: {fileID: 4160681035136674739, guid: 9a0d14f51db76254ea10cfc4b84db4eb,
        type: 3}
      propertyPath: m_LocalPosition.y
      value: 0
      objectReference: {fileID: 0}
    - target: {fileID: 4160681035136674739, guid: 9a0d14f51db76254ea10cfc4b84db4eb,
        type: 3}
      propertyPath: m_LocalPosition.z
      value: 0
      objectReference: {fileID: 0}
    - target: {fileID: 4160681035136674739, guid: 9a0d14f51db76254ea10cfc4b84db4eb,
        type: 3}
      propertyPath: m_LocalRotation.x
      value: -0
      objectReference: {fileID: 0}
    - target: {fileID: 4160681035136674739, guid: 9a0d14f51db76254ea10cfc4b84db4eb,
        type: 3}
      propertyPath: m_LocalRotation.y
      value: -0
      objectReference: {fileID: 0}
    - target: {fileID: 4160681035136674739, guid: 9a0d14f51db76254ea10cfc4b84db4eb,
        type: 3}
      propertyPath: m_LocalRotation.z
      value: -0
      objectReference: {fileID: 0}
    - target: {fileID: 4160681035136674739, guid: 9a0d14f51db76254ea10cfc4b84db4eb,
        type: 3}
      propertyPath: m_LocalRotation.w
      value: 1
      objectReference: {fileID: 0}
    - target: {fileID: 4160681035136674739, guid: 9a0d14f51db76254ea10cfc4b84db4eb,
        type: 3}
      propertyPath: m_RootOrder
      value: 0
      objectReference: {fileID: 0}
    - target: {fileID: 4160681035136674739, guid: 9a0d14f51db76254ea10cfc4b84db4eb,
        type: 3}
      propertyPath: m_LocalEulerAnglesHint.x
      value: 0
      objectReference: {fileID: 0}
    - target: {fileID: 4160681035136674739, guid: 9a0d14f51db76254ea10cfc4b84db4eb,
        type: 3}
      propertyPath: m_LocalEulerAnglesHint.y
      value: 0
      objectReference: {fileID: 0}
    - target: {fileID: 4160681035136674739, guid: 9a0d14f51db76254ea10cfc4b84db4eb,
        type: 3}
      propertyPath: m_LocalEulerAnglesHint.z
      value: 0
      objectReference: {fileID: 0}
    - target: {fileID: 4160681035136674739, guid: 9a0d14f51db76254ea10cfc4b84db4eb,
        type: 3}
      propertyPath: m_AnchoredPosition.x
      value: 0
      objectReference: {fileID: 0}
    - target: {fileID: 4160681035136674739, guid: 9a0d14f51db76254ea10cfc4b84db4eb,
        type: 3}
      propertyPath: m_AnchoredPosition.y
      value: 0
      objectReference: {fileID: 0}
    - target: {fileID: 4160681035136674739, guid: 9a0d14f51db76254ea10cfc4b84db4eb,
        type: 3}
      propertyPath: m_SizeDelta.x
      value: 75
      objectReference: {fileID: 0}
    - target: {fileID: 4160681035136674739, guid: 9a0d14f51db76254ea10cfc4b84db4eb,
        type: 3}
      propertyPath: m_SizeDelta.y
      value: 75
      objectReference: {fileID: 0}
    - target: {fileID: 4160681035136674739, guid: 9a0d14f51db76254ea10cfc4b84db4eb,
        type: 3}
      propertyPath: m_AnchorMin.x
      value: 0
      objectReference: {fileID: 0}
    - target: {fileID: 4160681035136674739, guid: 9a0d14f51db76254ea10cfc4b84db4eb,
        type: 3}
      propertyPath: m_AnchorMin.y
      value: 0
      objectReference: {fileID: 0}
    - target: {fileID: 4160681035136674739, guid: 9a0d14f51db76254ea10cfc4b84db4eb,
        type: 3}
      propertyPath: m_AnchorMax.x
      value: 0
      objectReference: {fileID: 0}
    - target: {fileID: 4160681035136674739, guid: 9a0d14f51db76254ea10cfc4b84db4eb,
        type: 3}
      propertyPath: m_AnchorMax.y
      value: 0
      objectReference: {fileID: 0}
    - target: {fileID: 4160681035136674739, guid: 9a0d14f51db76254ea10cfc4b84db4eb,
        type: 3}
      propertyPath: m_Pivot.x
      value: 0.5
      objectReference: {fileID: 0}
    - target: {fileID: 4160681035136674739, guid: 9a0d14f51db76254ea10cfc4b84db4eb,
        type: 3}
      propertyPath: m_Pivot.y
      value: 0.5
      objectReference: {fileID: 0}
    - target: {fileID: 4160681035136674740, guid: 9a0d14f51db76254ea10cfc4b84db4eb,
        type: 3}
      propertyPath: m_Name
      value: MoneyReward
      objectReference: {fileID: 0}
    m_RemovedComponents: []
  m_SourcePrefab: {fileID: 100100000, guid: 9a0d14f51db76254ea10cfc4b84db4eb, type: 3}
