%YAML 1.1
%TAG !u! tag:unity3d.com,2011:
--- !u!65 &1733518589
BoxCollider:
  m_ObjectHideFlags: 0
  m_CorrespondingSourceObject: {fileID: 0}
  m_PrefabInstance: {fileID: 0}
  m_PrefabAsset: {fileID: 0}
  m_GameObject: {fileID: 48545554232879157}
  m_Material: {fileID: 0}
  m_IsTrigger: 0
  m_Enabled: 1
  serializedVersion: 2
  m_Size: {x: 1.343216, y: 2.3594205, z: 1.1729355}
  m_Center: {x: -0.04927826, y: 0.88039625, z: 0.039878845}
--- !u!1001 &48545554232782575
PrefabInstance:
  m_ObjectHideFlags: 0
  serializedVersion: 2
  m_Modification:
    m_TransformParent: {fileID: 0}
    m_Modifications:
    - target: {fileID: 100058, guid: 3e198e4f02a5b954aac922b306e5dc7a, type: 3}
      propertyPath: m_Name
      value: PozoUnity  1
      objectReference: {fileID: 0}
    - target: {fileID: 400058, guid: 3e198e4f02a5b954aac922b306e5dc7a, type: 3}
      propertyPath: m_LocalPosition.x
      value: 191.71317
      objectReference: {fileID: 0}
    - target: {fileID: 400058, guid: 3e198e4f02a5b954aac922b306e5dc7a, type: 3}
      propertyPath: m_LocalPosition.y
      value: 0.12877506
      objectReference: {fileID: 0}
    - target: {fileID: 400058, guid: 3e198e4f02a5b954aac922b306e5dc7a, type: 3}
      propertyPath: m_LocalPosition.z
      value: 40.154327
      objectReference: {fileID: 0}
    - target: {fileID: 400058, guid: 3e198e4f02a5b954aac922b306e5dc7a, type: 3}
      propertyPath: m_LocalRotation.x
      value: 0
      objectReference: {fileID: 0}
    - target: {fileID: 400058, guid: 3e198e4f02a5b954aac922b306e5dc7a, type: 3}
      propertyPath: m_LocalRotation.y
      value: 0
      objectReference: {fileID: 0}
    - target: {fileID: 400058, guid: 3e198e4f02a5b954aac922b306e5dc7a, type: 3}
      propertyPath: m_LocalRotation.z
      value: 0
      objectReference: {fileID: 0}
    - target: {fileID: 400058, guid: 3e198e4f02a5b954aac922b306e5dc7a, type: 3}
      propertyPath: m_LocalRotation.w
      value: 1
      objectReference: {fileID: 0}
    - target: {fileID: 400058, guid: 3e198e4f02a5b954aac922b306e5dc7a, type: 3}
      propertyPath: m_RootOrder
      value: 0
      objectReference: {fileID: 0}
    - target: {fileID: 400058, guid: 3e198e4f02a5b954aac922b306e5dc7a, type: 3}
      propertyPath: m_LocalEulerAnglesHint.x
      value: 0
      objectReference: {fileID: 0}
    - target: {fileID: 400058, guid: 3e198e4f02a5b954aac922b306e5dc7a, type: 3}
      propertyPath: m_LocalEulerAnglesHint.y
      value: 0
      objectReference: {fileID: 0}
    - target: {fileID: 400058, guid: 3e198e4f02a5b954aac922b306e5dc7a, type: 3}
      propertyPath: m_LocalEulerAnglesHint.z
      value: 0
      objectReference: {fileID: 0}
    m_RemovedComponents: []
  m_SourcePrefab: {fileID: 100100000, guid: 3e198e4f02a5b954aac922b306e5dc7a, type: 3}
--- !u!1 &48545554232879157 stripped
GameObject:
  m_CorrespondingSourceObject: {fileID: 100058, guid: 3e198e4f02a5b954aac922b306e5dc7a,
    type: 3}
  m_PrefabInstance: {fileID: 48545554232782575}
  m_PrefabAsset: {fileID: 0}
