%YAML 1.1
%TAG !u! tag:unity3d.com,2011:
--- !u!1 &5389287978735928848
GameObject:
  m_ObjectHideFlags: 0
  m_CorrespondingSourceObject: {fileID: 0}
  m_PrefabInstance: {fileID: 0}
  m_PrefabAsset: {fileID: 0}
  serializedVersion: 6
  m_Component:
  - component: {fileID: 5389287978735928850}
  - component: {fileID: 5389287978735928851}
  m_Layer: 0
  m_Name: JournalEntryManager
  m_TagString: Untagged
  m_Icon: {fileID: 0}
  m_NavMeshLayer: 0
  m_StaticEditorFlags: 0
  m_IsActive: 1
--- !u!4 &5389287978735928850
Transform:
  m_ObjectHideFlags: 0
  m_CorrespondingSourceObject: {fileID: 0}
  m_PrefabInstance: {fileID: 0}
  m_PrefabAsset: {fileID: 0}
  m_GameObject: {fileID: 5389287978735928848}
  m_LocalRotation: {x: 0, y: 0, z: 0, w: 1}
  m_LocalPosition: {x: 0, y: 0, z: 0}
  m_LocalScale: {x: 1, y: 1, z: 1}
  m_Children: []
  m_Father: {fileID: 0}
  m_RootOrder: 0
  m_LocalEulerAnglesHint: {x: 0, y: 0, z: 0}
--- !u!114 &5389287978735928851
MonoBehaviour:
  m_ObjectHideFlags: 0
  m_CorrespondingSourceObject: {fileID: 0}
  m_PrefabInstance: {fileID: 0}
  m_PrefabAsset: {fileID: 0}
  m_GameObject: {fileID: 5389287978735928848}
  m_Enabled: 1
  m_EditorHideFlags: 0
  m_Script: {fileID: 11500000, guid: 25a86e643f4ac50419a00aaee52d89f2, type: 3}
  m_Name: 
  m_EditorClassIdentifier: 
  JournalEntries:
  - {fileID: 11400000, guid: b4f8fa14d6eb8df45a93304bb965cb5b, type: 2}
  - {fileID: 11400000, guid: 88d6da7187db7ea4dbe8778d748f5cd5, type: 2}
  - {fileID: 11400000, guid: 1cf4e1a49aa4f454ebf7c3f50464653a, type: 2}
  - {fileID: 11400000, guid: a15ba711039e3b9459d0f0ac23f07b62, type: 2}
  - {fileID: 11400000, guid: 0b572cefbd2548348a7934fcb1aa697f, type: 2}
  - {fileID: 11400000, guid: 332139507754545478bdef8342189fdc, type: 2}
  - {fileID: 11400000, guid: 346f1b935ddc4fa48af3d093ff8a0112, type: 2}
  - {fileID: 11400000, guid: abdbbd9ac18256441bac19041ccde644, type: 2}
  - {fileID: 11400000, guid: aa6d003816244744e8b345a931c133df, type: 2}
  - {fileID: 11400000, guid: 16baa5e4cabe3f64786ac968dde3432d, type: 2}
