%YAML 1.1
%TAG !u! tag:unity3d.com,2011:
--- !u!1 &2863859943588976623
GameObject:
  m_ObjectHideFlags: 0
  m_CorrespondingSourceObject: {fileID: 0}
  m_PrefabInstance: {fileID: 0}
  m_PrefabAsset: {fileID: 0}
  serializedVersion: 6
  m_Component:
  - component: {fileID: 2863859943588976621}
  - component: {fileID: 2863859943588976620}
  m_Layer: 0
  m_Name: LocalizationManager
  m_TagString: Untagged
  m_Icon: {fileID: 0}
  m_NavMeshLayer: 0
  m_StaticEditorFlags: 0
  m_IsActive: 1
--- !u!4 &2863859943588976621
Transform:
  m_ObjectHideFlags: 0
  m_CorrespondingSourceObject: {fileID: 0}
  m_PrefabInstance: {fileID: 0}
  m_PrefabAsset: {fileID: 0}
  m_GameObject: {fileID: 2863859943588976623}
  m_LocalRotation: {x: 0, y: 0, z: 0, w: 1}
  m_LocalPosition: {x: 0, y: 0, z: 0}
  m_LocalScale: {x: 1, y: 1, z: 1}
  m_Children: []
  m_Father: {fileID: 0}
  m_RootOrder: 0
  m_LocalEulerAnglesHint: {x: 0, y: 0, z: 0}
--- !u!114 &2863859943588976620
MonoBehaviour:
  m_ObjectHideFlags: 0
  m_CorrespondingSourceObject: {fileID: 0}
  m_PrefabInstance: {fileID: 0}
  m_PrefabAsset: {fileID: 0}
  m_GameObject: {fileID: 2863859943588976623}
  m_Enabled: 1
  m_EditorHideFlags: 0
  m_Script: {fileID: 11500000, guid: be8e810794d6a1649ae69199ee6509ad, type: 3}
  m_Name: 
  m_EditorClassIdentifier: 
  AvailableLang:
  - {fileID: 11400000, guid: d568e70648f54bf4e84b7bfcab9821fa, type: 2}
  - {fileID: 11400000, guid: 51beaa24209d08b4db7d9fcff1280a0c, type: 2}
  - {fileID: 11400000, guid: f232aceff8a61de488e2fd0fdf5c1f38, type: 2}
